tests/fixtures/counter.vcd
$version Generated by VerilatedVcd $end
$timescale 1ps $end
 $scope module counter_tb $end
  $var wire 1 # clk_in $end
  $var wire 1 $ d $end
  $var wire 1 % q0 $end
  $var wire 1 & q1 $end
  $var wire 1 ' y $end
  $var wire 32 ( i [31:0] $end
  $scope module dut $end
   $var wire 1 # clk_in $end
   $var wire 1 $ d $end
   $var wire 1 % q0 $end
   $var wire 1 & q1 $end
   $var wire 1 ' y $end
   $var wire 1 # clk $end
   $var wire 1 ' n0 $end
   $scope module clkbuf $end
    $var wire 1 # A $end
    $var wire 1 # X $end
   $upscope $end
   $scope module ff0 $end
    $var wire 1 # CK $end
    $var wire 1 $ D $end
    $var wire 1 % Q $end
   $upscope $end
   $scope module ff1 $end
    $var wire 1 # CK $end
    $var wire 1 ' D $end
    $var wire 1 & Q $end
   $upscope $end
   $scope module u0 $end
    $var wire 1 $ A $end
    $var wire 1 ' Y $end
   $upscope $end
   $scope module u1 $end
    $var wire 1 ' A $end
    $var wire 1 ' Y $end
   $upscope $end
  $upscope $end
 $upscope $end
$enddefinitions $end


#0
0#
0$
0%
0&
1'
b00000000000000000000000000000000 (
#5000
1#
1$
1%
0'
b00000000000000000000000000000001 (
#10000
0#
#15000
1#
b00000000000000000000000000000010 (
#20000
0#
#25000
1#
b00000000000000000000000000000011 (
#30000
0#
#35000
1#
0$
0%
1&
1'
b00000000000000000000000000000100 (
#40000
0#
#45000
1#
b00000000000000000000000000000101 (
#50000
0#
#55000
1#
b00000000000000000000000000000110 (
#60000
0#
#65000
1#
1$
1%
0&
0'
b00000000000000000000000000000111 (
#70000
0#
#75000
1#
b00000000000000000000000000001000 (
#80000
0#
#85000
1#
b00000000000000000000000000001001 (
#90000
0#
#95000
1#
0$
0%
1&
1'
b00000000000000000000000000001010 (
#100000
0#
#105000
1#
b00000000000000000000000000001011 (
#110000
0#
#115000
1#
b00000000000000000000000000001100 (
#120000
0#
#125000
1#
1$
1%
0&
0'
b00000000000000000000000000001101 (
#130000
0#
#135000
1#
b00000000000000000000000000001110 (
#140000
0#
#145000
1#
b00000000000000000000000000001111 (
#150000
0#
#155000
1#
0$
0%
1&
1'
b00000000000000000000000000010000 (
#160000
0#
#165000
1#
b00000000000000000000000000010001 (
#170000
0#
#175000
1#
b00000000000000000000000000010010 (
#180000
0#
#185000
1#
1$
1%
0&
0'
b00000000000000000000000000010011 (
#190000
0#
#195000
1#
b00000000000000000000000000010100 (
#200000
0#
#205000
1#
b00000000000000000000000000010101 (
#210000
0#
#215000
1#
0$
0%
1&
1'
b00000000000000000000000000010110 (
#220000
0#
#225000
1#
b00000000000000000000000000010111 (
#230000
0#
#235000
1#
b00000000000000000000000000011000 (
#240000
0#
#245000
1#
1$
1%
0&
0'
b00000000000000000000000000011001 (
#250000
0#
#255000
1#
b00000000000000000000000000011010 (
#260000
0#
#265000
1#
b00000000000000000000000000011011 (
#270000
0#
#275000
1#
0$
0%
1&
1'
b00000000000000000000000000011100 (
#280000
0#
#285000
1#
b00000000000000000000000000011101 (
#290000
0#
#295000
1#
b00000000000000000000000000011110 (
#300000
0#
#305000
1#
1$
1%
0&
0'
b00000000000000000000000000011111 (
#310000
0#
#315000
1#
b00000000000000000000000000100000 (
#320000
0#
#325000
1#
b00000000000000000000000000100001 (
#330000
0#
#335000
1#
0$
0%
1&
1'
b00000000000000000000000000100010 (
#340000
0#
#345000
1#
b00000000000000000000000000100011 (
#350000
0#
#355000
1#
b00000000000000000000000000100100 (
#360000
0#
#365000
1#
1$
1%
0&
0'
b00000000000000000000000000100101 (
#370000
0#
#375000
1#
b00000000000000000000000000100110 (
#380000
0#
#385000
1#
b00000000000000000000000000100111 (
#390000
0#
#395000
1#
0$
0%
1&
1'
b00000000000000000000000000101000 (
